[
    {"companyInfo":{
        "name": "Legacy Music Network",
        "fullname": "Legacy Music Network Co.,Ltd",
        "slogan": "Myanmar's leading music company",
        "address": "3 Myawaddy Street, Pyi Thar Yar Avenue, Yankin Township, Yangon, Myanmar.",
        "mobile": "Legacy Music Network Co.,Ltd",
        "email":"admin@myanmarmusicstore.com"
        }
    },
    {"overview":{
        "title": "Overview",
        "content": "Legacy Music Network is a company that handles various fields within the music business in Myanmar. Since early 1990, it has been Myanmar's leading music company. The company boasts a boundless catalog of music that varies from trivial to the most significant recordings that Myanmar had produced. It introduces new and innovative ways to reach out to a Myanmar audience all over the world.",
        "link_text":"Browse Our Product"
        }
    },
    {"mainmenu":{
        "aboutUs": "About Us",
        "ourProducts": "Our Product",
        "ourServices": "Our Service",        
        "contactUs":"Contact Us"
        }
    }
]